…
2. Use `janitor` to rename the columns and make them easier to use. As part of this cleaning step, change `country`, `isscaap_group_number`, `asfis_species_number`, and `fao_major_fishing_area` to data class factor. 

```r
fisheries <- clean_names(fisheries)
fisheries <- fisheries %>% 
  mutate_if(is.character, factor)
fisheries
```

```
## # A tibble: 17,692 × 71
##    country common_name               isscaap_group_number isscaap_taxonomic_gr…¹
##    <fct>   <fct>                                    <dbl> <fct>                 
##  1 Albania Angelsharks, sand devils…                   38 Sharks, rays, chimaer…
##  2 Albania Atlantic bonito                             36 Tunas, bonitos, billf…
##  3 Albania Barracudas nei                              37 Miscellaneous pelagic…
##  4 Albania Blue and red shrimp                         45 Shrimps, prawns       
##  5 Albania Blue whiting(=Poutassou)                    32 Cods, hakes, haddocks 
##  6 Albania Bluefish                                    37 Miscellaneous pelagic…
##  7 Albania Bogue                                       33 Miscellaneous coastal…
##  8 Albania Caramote prawn                              45 Shrimps, prawns       
##  9 Albania Catsharks, nursehounds n…                   38 Sharks, rays, chimaer…
## 10 Albania Common cuttlefish                           57 Squids, cuttlefishes,…
## # ℹ 17,682 more rows
## # ℹ abbreviated name: ¹​isscaap_taxonomic_group
## # ℹ 67 more variables: asfis_species_number <fct>, asfis_species_name <fct>,
## #   fao_major_fishing_area <dbl>, measure <fct>, x1950 <fct>, x1951 <fct>,
## #   x1952 <fct>, x1953 <fct>, x1954 <fct>, x1955 <fct>, x1956 <fct>,
## #   x1957 <fct>, x1958 <fct>, x1959 <fct>, x1960 <fct>, x1961 <fct>,
## #   x1962 <fct>, x1963 <fct>, x1964 <fct>, x1965 <fct>, x1966 <fct>, …
```
…
4. Refocus the data only to include country, isscaap_taxonomic_group, asfis_species_name, asfis_species_number, year, catch.

```r
fisheries_refocus <- fisheries_tidy %>%
  select(country,isscaap_taxonomic_group,asfis_species_name,asfis_species_number,year,catch)
fisheries_refocus
```

```
## # A tibble: 376,771 × 6
##    country isscaap_taxonomic_group asfis_species_name asfis_species_number  year
##    <fct>   <fct>                   <fct>              <fct>                <dbl>
##  1 Albania Sharks, rays, chimaeras Squatinidae        10903XXXXX            1995
##  2 Albania Sharks, rays, chimaeras Squatinidae        10903XXXXX            1996
##  3 Albania Sharks, rays, chimaeras Squatinidae        10903XXXXX            1997
##  4 Albania Sharks, rays, chimaeras Squatinidae        10903XXXXX            1998
##  5 Albania Sharks, rays, chimaeras Squatinidae        10903XXXXX            1999
##  6 Albania Sharks, rays, chimaeras Squatinidae        10903XXXXX            2000
##  7 Albania Sharks, rays, chimaeras Squatinidae        10903XXXXX            2001
##  8 Albania Sharks, rays, chimaeras Squatinidae        10903XXXXX            2002
##  9 Albania Sharks, rays, chimaeras Squatinidae        10903XXXXX            2003
## 10 Albania Sharks, rays, chimaeras Squatinidae        10903XXXXX            2004
## # ℹ 376,761 more rows
## # ℹ 1 more variable: catch <dbl>
```
…
6. Which country had the largest overall catch in the year 2000?

```r
fisheries_refocus %>%
  select(country,catch,year) %>%
  filter(year=="2000") %>%
  arrange(desc(catch))
```

```
## # A tibble: 8,793 × 3
##    country                  catch  year
##    <fct>                    <dbl> <dbl>
##  1 China                     9068  2000
##  2 Peru                      5717  2000
##  3 Russian Federation        5065  2000
##  4 Viet Nam                  4945  2000
##  5 Chile                     4299  2000
##  6 China                     3288  2000
##  7 China                     2782  2000
##  8 United States of America  2438  2000
##  9 China                     1234  2000
## 10 Philippines                999  2000
## # ℹ 8,783 more rows
```
China

7. Which country caught the most sardines (_Sardina pilchardus_) between the years 1990-2000?

```r
fisheries_refocus %>%
  group_by(country) %>%
  filter(asfis_species_name=="Sardina pilchardus") %>%
  arrange(desc(catch))
```

```
## # A tibble: 1,655 × 6
## # Groups:   country [46]
##    country  isscaap_taxonomic_gr…¹ asfis_species_name asfis_species_number  year
##    <fct>    <fct>                  <fct>              <fct>                <dbl>
##  1 Spain    Herrings, sardines, a… Sardina pilchardus 1210506401            1989
##  2 Un. Sov… Herrings, sardines, a… Sardina pilchardus 1210506401            1976
##  3 Morocco  Herrings, sardines, a… Sardina pilchardus 1210506401            1994
##  4 Ukraine  Herrings, sardines, a… Sardina pilchardus 1210506401            1989
##  5 Spain    Herrings, sardines, a… Sardina pilchardus 1210506401            1987
##  6 Morocco  Herrings, sardines, a… Sardina pilchardus 1210506401            1996
##  7 Russian… Herrings, sardines, a… Sardina pilchardus 1210506401            1988
##  8 Spain    Herrings, sardines, a… Sardina pilchardus 1210506401            1996
##  9 Morocco  Herrings, sardines, a… Sardina pilchardus 1210506401            1960
## 10 Morocco  Herrings, sardines, a… Sardina pilchardus 1210506401            1965
## # ℹ 1,645 more rows
## # ℹ abbreviated name: ¹​isscaap_taxonomic_group
## # ℹ 1 more variable: catch <dbl>
```
Spain

8. Which five countries caught the most cephalopods between 2008-2012?

```r
ceph <- fisheries_tidy %>%
  filter(asfis_species_name=="Cephalopoda") %>%
  filter(year>2008 & year<2012) %>%
  arrange(desc(catch))
ceph
```

```
## # A tibble: 44 × 10
##    country common_name     isscaap_group_number isscaap_taxonomic_group        
##    <fct>   <fct>                          <dbl> <fct>                          
##  1 India   Cephalopods nei                   57 Squids, cuttlefishes, octopuses
##  2 India   Cephalopods nei                   57 Squids, cuttlefishes, octopuses
##  3 China   Cephalopods nei                   57 Squids, cuttlefishes, octopuses
##  4 India   Cephalopods nei                   57 Squids, cuttlefishes, octopuses
##  5 India   Cephalopods nei                   57 Squids, cuttlefishes, octopuses
##  6 India   Cephalopods nei                   57 Squids, cuttlefishes, octopuses
##  7 Algeria Cephalopods nei                   57 Squids, cuttlefishes, octopuses
##  8 China   Cephalopods nei                   57 Squids, cuttlefishes, octopuses
##  9 Algeria Cephalopods nei                   57 Squids, cuttlefishes, octopuses
## 10 India   Cephalopods nei                   57 Squids, cuttlefishes, octopuses
## # ℹ 34 more rows
## # ℹ 6 more variables: asfis_species_number <fct>, asfis_species_name <fct>,
## #   fao_major_fishing_area <dbl>, measure <fct>, year <dbl>, catch <dbl>
```
India, China , Algeria, France, Spain

9. Which species had the highest catch total between 2008-2012? (hint: Osteichthyes is not a species)

```r
fisheries_refocus %>%
  filter(year>2008 & year<2012) %>%
  arrange(desc(catch))
```

```
## # A tibble: 30,633 × 6
##    country  isscaap_taxonomic_gr…¹ asfis_species_name asfis_species_number  year
##    <fct>    <fct>                  <fct>              <fct>                <dbl>
##  1 Viet Nam Marine fishes not ide… Osteichthyes       199XXXXXXX010         2010
##  2 Viet Nam Marine fishes not ide… Osteichthyes       199XXXXXXX010         2009
##  3 China    Miscellaneous demersa… Trichiurus leptur… 1750600302            2011
##  4 Norway   Herrings, sardines, a… Clupea harengus    1210500105            2009
##  5 China    Miscellaneous demersa… Trichiurus leptur… 1750600302            2010
##  6 Russian… Cods, hakes, haddocks  Theragra chalcogr… 1480401601            2009
##  7 Russian… Cods, hakes, haddocks  Theragra chalcogr… 1480401601            2011
##  8 Peru     Herrings, sardines, a… Engraulis ringens  1210600208            2011
##  9 Peru     Herrings, sardines, a… Engraulis ringens  1210600208            2009
## 10 United … Cods, hakes, haddocks  Theragra chalcogr… 1480401601            2011
## # ℹ 30,623 more rows
## # ℹ abbreviated name: ¹​isscaap_taxonomic_group
## # ℹ 1 more variable: catch <dbl>
```
…
